\relax 
\providecommand\hyper@newdestlabel[2]{}
\catcode `"\active 
\providecommand\HyperFirstAtBeginDocument{\AtBeginDocument}
\HyperFirstAtBeginDocument{\ifx\hyper@anchor\@undefined
\global\let\oldcontentsline\contentsline
\gdef\contentsline#1#2#3#4{\oldcontentsline{#1}{#2}{#3}}
\global\let\oldnewlabel\newlabel
\gdef\newlabel#1#2{\newlabelxx{#1}#2}
\gdef\newlabelxx#1#2#3#4#5#6{\oldnewlabel{#1}{{#2}{#3}}}
\AtEndDocument{\ifx\hyper@anchor\@undefined
\let\contentsline\oldcontentsline
\let\newlabel\oldnewlabel
\fi}
\fi}
\global\let\hyper@last\relax 
\gdef\HyperFirstAtBeginDocument#1{#1}
\providecommand\HyField@AuxAddToFields[1]{}
\providecommand\HyField@AuxAddToCoFields[2]{}
\@input{./structure/cover.aux}
\babel@aux{english}{}
\babel@aux{english}{}
\@writefile{toc}{\contentsline {section}{\numberline {1}Introduction}{1}{section.1}}
\@writefile{toc}{\contentsline {section}{\numberline {2}Tecnologies}{1}{section.2}}
\@writefile{toc}{\contentsline {section}{\numberline {3}Requirements}{1}{section.3}}
\@writefile{toc}{\contentsline {section}{\numberline {4}Features}{1}{section.4}}
\@writefile{toc}{\contentsline {section}{\numberline {5}Use Cases}{1}{section.5}}
\@writefile{toc}{\contentsline {subsection}{\numberline {5.1}Login}{1}{subsection.5.1}}
\@writefile{toc}{\contentsline {subsection}{\numberline {5.2}Create plan}{1}{subsection.5.2}}
\@writefile{toc}{\contentsline {subsection}{\numberline {5.3}Create legend}{1}{subsection.5.3}}
\@writefile{toc}{\contentsline {subsection}{\numberline {5.4}Paint block}{1}{subsection.5.4}}
\@writefile{toc}{\contentsline {subsection}{\numberline {5.5}Modify template}{1}{subsection.5.5}}
\@writefile{toc}{\contentsline {section}{\numberline {6}Mockups}{1}{section.6}}
\newlabel{LastPage}{{}{1}{}{page.1}{}}
\xdef\lastpage@lastpage{1}
\xdef\lastpage@lastpageHy{1}
