\babel@toc {english}{}
\babel@toc {english}{}
\contentsline {chapter}{List of Figures}{2}{section*.1}
\contentsline {chapter}{List of Tables}{4}{section*.1}
\contentsline {chapter}{List of Listings}{5}{section*.1}
\contentsline {section}{\numberline {1}Introduction}{1}{section.1}
\contentsline {section}{\numberline {2}Tecnologies}{1}{section.2}
\contentsline {section}{\numberline {3}Requirements}{1}{section.3}
\contentsline {section}{\numberline {4}Features}{1}{section.4}
\contentsline {section}{\numberline {5}Use Cases}{1}{section.5}
\contentsline {subsection}{\numberline {5.1}Login}{1}{subsection.5.1}
\contentsline {subsection}{\numberline {5.2}Create plan}{1}{subsection.5.2}
\contentsline {subsection}{\numberline {5.3}Create legend}{1}{subsection.5.3}
\contentsline {subsection}{\numberline {5.4}Paint block}{1}{subsection.5.4}
\contentsline {subsection}{\numberline {5.5}Modify template}{1}{subsection.5.5}
\contentsline {section}{\numberline {6}Mockups}{1}{section.6}
