{
	"name": "Plan 2",
	"dateCreated": "cenas",
	"archived": "",
	"owner": "userName",
	"legend": [
		{
			"id": "color_id",
			"color": "#1235a",
			"label": "Paris"
		},
		{
			"id": "color_id2",
			"color": "#a1355",
			"label": "Paris"
		},
		{
			"id": "color_id2",
			"color": "#45wwew",
			"label": "Paris"
		}
	],
	"numDays": "",
	"days": [
		{
			"id": "",
			"type": "",
			"sections": {
				"1": "legend_1",
				"2": "legend_4",
				"3": "legend_4",
				"4": "legend_2"
			},
			"dividers": {
				"top": false,
				"mid": true,
				"bot": false
			}
		}
	]
}